Current Trends of Artificial Intelligence Patents in Precision Psychiatry: A Systematic Evaluation of the Patent Landscape
…
Content relationships

data

# A tibble: 102 × 69
   `Publication Number` `Include/exclude` `Reason exclude` `Illness group` 
   <chr>                <chr>             <chr>            <chr>           
 1 KR2211049B1          Include           <NA>             Unspecific      
 2 CN110739070A         Include           <NA>             Depression, ADHD
 3 CN113855048A         Include           <NA>             Autism          
 4 CN114496167A         Include           <NA>             Unspecific      
 5 CN110327051A         Include           <NA>             Unspecific      
 6 IN202241044108A      Include           <NA>             Autism          
 7 CN113723557A         Include           <NA>             Depression      
 8 CN114649075A         Include           <NA>             Depression      
 9 CN113520331A         Include           <NA>             Sleep disorder  
10 KR2021059272A        Include           <NA>             Depression      
# … with 92 more rows, and 65 more variables:
#   `Precision psychiatry domain` <chr>,
#   `Feedback type (in case of treatment/ predictive)` <chr>,
#   `Intervention type` <chr>, Data <chr>, Title <chr>, `Title - DWPI` <chr>,
#   `Abstract - DWPI` <chr>, `Claims (English)` <chr>,
#   `Priority Number - DWPI` <chr>, `Priority Date - DWPI` <chr>,
#   `Application Number` <chr>, `Application Date` <chr>, …
…
CPC trends

# create CPC df
data_cpc <- separate_rows(data,`CPC - Current - DWPI`,sep = " | ")
data_cpc <- data_cpc[!grepl("\\|", data_cpc$`CPC - Current - DWPI`),] 
data_cpc <- data_cpc[!is.na(data_cpc$`CPC - Current - DWPI`),]

data_cpc$cpc_short <- substr(data_cpc$`CPC - Current - DWPI`, 1, 4)   
# Top CPC codes over all years

data_cpc %>% count(.$cpc_short) %>% arrange(desc(n))

# A tibble: 21 × 2
   `.$cpc_short`     n
   <chr>         <int>
 1 G16H            230
 2 A61B            201
 3 G06N             69
 4 G06K             37
 5 A61M             28
 6 C12Q             25
 7 A61N             23
 8 G01N             21
 9 G10L             19
10 C12N             13
# … with 11 more rows

data_cpc <- data_cpc %>%
  dplyr::group_by(cpc_short) 

data_cpc_trend <- data_cpc %>%
  count(Pub_year,cpc_short)

data_cpc_trend$Pub_year <- as.numeric(data_cpc_trend$Pub_year)

data_cpc_trend %>% group_by(cpc_short) %>% 
  arrange(cpc_short, Pub_year) %>%
  summarise(trend = last(n) - first(n))

# A tibble: 21 × 2
   cpc_short trend
   <chr>     <int>
 1 A61B         51
 2 A61K          0
 3 A61M         18
 4 A61N         -1
 5 A61P          0
 6 A63F          0
 7 C12N          0
 8 C12Q          7
 9 G01N          3
10 G01V          0
# … with 11 more rows
…
